{
  "error": false,
  "isNewApp":false,
  "app_pkg": "com.appzombies.english.hindi.translator",
  "fbBannr": "221630288400321_221630635066953",
  "fbInter": "221630288400321_221631001733583",
  "fbNative": "221630288400321_329679720928710",
  "fbNativeBnnr": "221630288400321_329679890928693",
  "AdmobBannr": "ca-app-pub-4334878007907721/2813323688",
  "AdmobInter": "ca-app-pub-4334878007907721/2612446469",
  "AdmobInterSplash":"ca-app-pub-4334878007907721/2612446469",
  "AdmobNative": "ca-app-pub-4334878007907721/8305387153",
  "AdmobOpenAds": "ca-app-pub-4334878007907721/1299364793_",
  "admob_pub_id": "pub-4334878007907721",
  "admob_app_id": "ca-app-pub-4334878007907721~1150556527",
  "adType": "adx",
  "adStatus": "admob",
  "loadMore":false,
  "isConsent":true,
  "isForce":"yes",
  "adNativeCount":15,
  "Advertise_List": [
    {
     
	    "ad_id": 0,
	    "app_name": "WiFi QR Code Scanner",
	    "app_packageName": "com.appzombies.qrcodescanner",
	    "app_logo": "https://play-lh.googleusercontent.com/m7Fazsb3w4Lw44seq0ZkPSWoXTXSHb5xjgMAi52mlNPgIU-zf2EoB3R6tL9-gvu8k4o=w240-h480-rw",
	    "app_banner": "https://play-lh.googleusercontent.com/Z1QiDQUfY87I2RpBA_sfGWFMzLpH--y8LXhhg4TxM-Vq0nwSyf3Gnv9mDHn2lVcy87Q=w416-h235-rw",
        "app_shortDecription": "No more fumbling with complex passwords or network names",
		"app_rating": "4.4",
		"app_download": "1000",
		"app_AdFormat": "Banner",
		"app_buttonName": "Install"
	  
    }
  ],
  "adMobTime":3
}
