{
  "error": false,
  "isNewApp":false,
  "app_pkg": "com.chatkar.randomchat.livevideocall.randomvideocall.videocallappwithgirl.livetalk.videocall",
   "fbBannr": "YOUR_PLACEMENT_ID",
  "fbInter": "YOUR_PLACEMENT_ID",
  "fbNative": "YOUR_PLACEMENT_ID",
  "fbNativeBnnr": "YOUR_PLACEMENT_ID",
  "AdmobBannr": "ca-app-pub-4334878007907721/6551691478",
  "AdmobInter": "ca-app-pub-4334878007907721/1855528875",
  "AdmobInterSplash":"ca-app-pub-4334878007907721/1855528875",
  "AdmobNative": "ca-app-pub-4334878007907721/1918311898",
  "AdmobOpenAds": "ca-app-pub-4334878007907721/5238609805_",
  "admob_pub_id": "pub-4334878007907721",
  "admob_app_id": "ca-app-pub-4334878007907721~9029046545",
  "adType": "adx",
  "adStatus": "admob",
  "isConsent":true,
  "adNativeCount":15,
  "Advertise_List": [
    {
     
	    "ad_id": 0,
	    "app_name": "Video Player All Format",
	    "app_packageName": "com.videoplayer.musicplayer.audioplayer.videoplayerallformat",
	    "app_logo": "https://play-lh.googleusercontent.com/5adeqWGt4RLISBe1zfHo65b4KWo2BVc1LTz5JFOGvheE7ohafUSChcQBZaUsrdMGeTU=w240-h480",
	    "app_banner": "https://play-lh.googleusercontent.com/qoj2RKinrIxuSKXmzef0De8kQ5_wWMy_7ZlD0eO-vAdgkTwIftAMqjqQ3US3SUKaEQ=w416-h235",
        "app_shortDecription": "HD video player helps you to play video which is available on your device",
		"app_rating": "4.4",
		"app_download": "1000",
		"app_AdFormat": "Banner",
		"app_buttonName": "Install"
	  
    }
  ],
  "adMobTime":3
}
