{
  "error": false,
  "isNewApp":false,
  "app_pkg": "com.appzombies.english.gujarati.translator",
  "fbBannr": "206761076723476_412225842843664",
  "fbInter": "206761076723476_206761400056777",
  "fbNative": "206761076723476_309582603107989",
  "fbNativeBnnr": "206761076723476_785200065546238",
  "AdmobBannr": "ca-app-pub-4334878007907721/6405982121",
  "AdmobInter": "ca-app-pub-4334878007907721/9179485125",
  "AdmobInterSplash":"ca-app-pub-4334878007907721/9179485125",
  "AdmobNative": "ca-app-pub-4334878007907721/2753677575",
  "AdmobOpenAds": "ca-app-pub-4334878007907721/4701222053_",
  "admob_pub_id": "pub-4334878007907721",
  "admob_app_id": "ca-app-pub-4334878007907721~5636596447",
  "adType": "adx",
  "adStatus": "admob",
  "loadMore":false,
  "isConsent":true,
  "isForce":"no",
  "adNativeCount":15,
  "Advertise_List": [
    {
     
	    "ad_id": 0,
	    "app_name": "Bluetooth Mic Loudspeaker",
	    "app_packageName": "com.osl.bluetoothmicspeaker.bluetooth.mic.to.speaker.livemicrophone.livemicrophonetospeaker.bluetoothmic",
	    "app_logo": "https://play-lh.googleusercontent.com/jfWDBm5f-E428XPP9Vl84OJPYotLgOtNEce7GQLAwEScVACZFNgCE6e2E_8zvmWzUAc=w240-h480-rw",
	    "app_banner": "https://play-lh.googleusercontent.com/tsdYDxekE3RyowNY8xsfIO0qvEr28NXfxe1SR6o5CaSwIZKJrqGKVvdcmotM_sdd1g=w416-h235-rw",
        "app_shortDecription": "Unleash the power of music with this innovative app that transforms your device into a dynamic, on-the-go sound system! ",
		"app_rating": "4.4",
		"app_download": "1000",
		"app_AdFormat": "Banner",
		"app_buttonName": "Install"
	  
    },
    {
     
	    "ad_id": 1,
	    "app_name": "All Bank Balance Check",
	    "app_packageName": "com.osl.banklist.allbalancecheck.balancechecker",
	    "app_logo": "https://play-lh.googleusercontent.com/27uvprf-JBHwbyFWNixlqmCZhmQ7Aa6P0rbmbr6oG2UE0UcktFWc-Cs4HPFke4HxGSku=w240-h480-rw",
	    "app_banner": "https://play-lh.googleusercontent.com/HaMOZa2Pc7KFGOlzlLx_N2nDEbeAt5w-gLgJM_6ySj9QZ46FWawxOfynJbfVs-sdq68=w416-h235-rw",
        "app_shortDecription": "Instant Bank Balance Check for any bank - Click on all bank balance inquiries without signing into your bank account or internet banking.",
		"app_rating": "4.4",
		"app_download": "10,000",
		"app_AdFormat": "Banner",
		"app_buttonName": "Install"
	  
    }
  ],
  "adMobTime":5

}
