{
  "error": false,
  "isNewApp":false,
  "app_pkg": "com.appzombies.english.gujarati.translator",
  "fbBannr": "206761076723476_412225842843664",
  "fbInter": "206761076723476_206761400056777",
  "fbNative": "206761076723476_309582603107989",
  "fbNativeBnnr": "206761076723476_785200065546238",
  "AdmobBannr": "ca-app-pub-4334878007907721/8372835760",
  "AdmobInter": "ca-app-pub-4334878007907721/7059754092",
  "AdmobInterSplash":"ca-app-pub-4334878007907721/7059754092",
  "AdmobNative": "ca-app-pub-4334878007907721/2466737110",
  "AdmobOpenAds": "ca-app-pub-4334878007907721/1308670327_",
  "admob_pub_id": "pub-4334878007907721",
  "admob_app_id": "ca-app-pub-4334878007907721~3707666598",
  "adType": "admob",
  "adStatus": "admob",
  "loadMore":false,
  "isConsent":true,
  "isForce":"yes",
  "adNativeCount":15,
  "Advertise_List": [
    {
     
	    "ad_id": 0,
	    "app_name": "WiFi QR Code Scanner",
	    "app_packageName": "com.appzombies.qrcodescanner",
	    "app_logo": "https://play-lh.googleusercontent.com/m7Fazsb3w4Lw44seq0ZkPSWoXTXSHb5xjgMAi52mlNPgIU-zf2EoB3R6tL9-gvu8k4o=w240-h480-rw",
	    "app_banner": "https://play-lh.googleusercontent.com/Z1QiDQUfY87I2RpBA_sfGWFMzLpH--y8LXhhg4TxM-Vq0nwSyf3Gnv9mDHn2lVcy87Q=w416-h235-rw",
        "app_shortDecription": "No more fumbling with complex passwords or network names",
		"app_rating": "4.4",
		"app_download": "1000",
		"app_AdFormat": "Banner",
		"app_buttonName": "Install"
	  
    }
  ],
  "adMobTime":4
}
